[
  {
    "title": "ID",
    "dataIndex": "id",
    "width": 60,
    "fixed": "left",
    "hideInTable": false,
    "hideInSearch": true,
    "hideInForm": true
  },
  {
    "title": "Tên",
    "dataIndex": "fullname",
    "width": 200,
    "hasFilter": "true",
    "hideInTable": false,
    "hideInSearch": false,
    "rules": [
      {
        "required": true,
        "message": "Tên không được trống"
      }
    ],
    "formPattern": {
      "card": "card1",
      "row": 1,
      "col": 1
    }
  },
  {
    "title": "Ảnh đại diện",
    "dataIndex": "avatar",
    "width": 120,
    "hideInTable": false,
    "hideInSearch": false,
    "valueType": "avatar",
    "formPattern": {
      "card": "card1",
      "row": 1,
      "col": 2
    }
  },
  {
    "title": "Email",
    "dataIndex": "email",
    "width": 120,
    "filters": "true",
    "hideInTable": false,
    "hideInSearch": false,
    "rules": [
      {
        "required": true,
        "pattern": "/^$/g",
        "message": "Email không được trống"
      }
    ],
    "formPattern": {
      "card": "card1",
      "row": 1,
      "col": 3
    }
  },
  {
    "title": "Điện thoại",
    "dataIndex": "phone",
    "width": 80,
    "hasFilter": "true",
    "hideInTable": false,
    "hideInSearch": false,
    "formPattern": {
      "card": "card1",
      "row": 2,
      "col": 1
    }
  },
  {
    "title": "Tỉnh/thành phố",
    "dataIndex": "province",
    "width": 120,
    "hasFilter": "true",
    "hideInTable": true,
    "hideInSearch": true,
    "formPattern": {
      "card": "card1",
      "row": 2,
      "col": 2
    }
  },
  {
    "title": "Huyện/Xã",
    "dataIndex": "district",
    "width": 120,
    "hasFilter": "true",
    "hideInTable": true,
    "hideInSearch": true,
    "formPattern": {
      "card": "card1",
      "row": 2,
      "col": 3
    }
  },
  {
    "title": "Phường",
    "dataIndex": "ward",
    "width": 120,
    "hasFilter": "true",
    "hideInTable": true,
    "hideInSearch": true,
    "formPattern": {
      "card": "card1",
      "row": 3,
      "col": 1
    }
  },
  {
    "title": "Địa chỉ",
    "dataIndex": "full_address",
    "width": 200,
    "hasFilter": "true",
    "hideInTable": false,
    "hideInSearch": true,
    "formPattern": {
      "card": "card2",
      "row": 1,
      "col": 1
    }
  },
  {
    "title": "Trạng thái",
    "dataIndex": "state",
    "width": 120,
    "filters": "true",
    "valueEnum": "statusEnum",
    "hideInTable": false,
    "hideInSearch": false,
    "formPattern": {
      "card": "card2",
      "row": 1,
      "col": 2
    }
  },
  {
    "title": "Ngày tạo",
    "dataIndex": "created",
    "width": 150,
    "valueType": "dateTime",
    "hideInTable": false,
    "hideInSearch": false,
    "hideInForm": true
  },
  {
    "title": "Ngày sửa",
    "dataIndex": "updated_at",
    "width": 150,
    "valueType": "dateTime",
    "hideInTable": false,
    "hideInSearch": false,
    "hideInForm": true
  }
]